<?xml version="1.0" encoding="UTF-8" standalone="no"?>
<!-- Created with Inkscape (http://www.inkscape.org/) -->

<svg
   xmlns:dc="http://purl.org/dc/elements/1.1/"
   xmlns:cc="http://creativecommons.org/ns#"
   xmlns:rdf="http://www.w3.org/1999/02/22-rdf-syntax-ns#"
   xmlns:svg="http://www.w3.org/2000/svg"
   xmlns="http://www.w3.org/2000/svg"
   xmlns:sodipodi="http://sodipodi.sourceforge.net/DTD/sodipodi-0.dtd"
   xmlns:inkscape="http://www.inkscape.org/namespaces/inkscape"
   width="120mm"
   height="120mm"
   viewBox="-60 -60 120 120"
   sodipodi:docname="icon.svg"
   version="1.1"
   id="svg47"
   inkscape:export-filename="/home/volk/Растровый.png"
   inkscape:export-xdpi="87"
   inkscape:export-ydpi="87"
   inkscape:version="0.92.1 r15371">
  <defs
     id="defs49" />
  <sodipodi:namedview
     pagecolor="#ffffff"
     bordercolor="#666666"
     borderopacity="1.0"
     inkscape:pageopacity="0.0"
     inkscape:pageshadow="2"
     inkscape:zoom="0.70710678"
     inkscape:cx="48.765707"
     inkscape:cy="326.33719"
     inkscape:document-units="mm"
     inkscape:current-layer="g312"
     showgrid="false"
     units="mm"
     showguides="false"
     inkscape:guide-bbox="true"
     inkscape:snap-global="true"
     inkscape:snap-bbox="true"
     inkscape:snap-bbox-midpoints="true"
     inkscape:window-width="1280"
     inkscape:window-height="979"
     inkscape:window-x="0"
     inkscape:window-y="0"
     inkscape:window-maximized="1"
     inkscape:bbox-paths="true"
     inkscape:bbox-nodes="true"
     inkscape:snap-bbox-edge-midpoints="true"
     inkscape:snap-grids="true"
     id="namedview37">
    <sodipodi:guide
       orientation="1,0"
       position="226.771653543,226.771653543"
       id="guide2827"
       inkscape:locked="false" />
    <sodipodi:guide
       orientation="0,1"
       position="226.771653543,226.771653543"
       id="guide2829"
       inkscape:locked="false" />
    <inkscape:grid
       type="xygrid"
       id="grid3072"
       empspacing="10"
       visible="true"
       enabled="true"
       snapvisiblegridlinesonly="true"
       units="mm"
       dotted="false"
       spacingx="0.1mm"
       spacingy="0.1mm" />
  </sodipodi:namedview>
  <metadata
     id="metadata2822">
    <rdf:RDF>
      <cc:Work
         rdf:about="">
        <dc:format>image/svg+xml</dc:format>
        <dc:type
           rdf:resource="http://purl.org/dc/dcmitype/StillImage" />
        <dc:title></dc:title>
      </cc:Work>
    </rdf:RDF>
  </metadata>
  <g
     inkscape:label="Layer 1"
     inkscape:groupmode="layer"
     id="Template"
     style="fill:none;stroke:black;stroke-width:0.05">
    <g
       id="g278"
       transform="matrix(3.9922722,0,0,3.9375566,-63.83362,-63.875627)">
      <g
         id="g312"
         transform="matrix(0.93613197,0,0,1.0247598,1.1194145,0.6413168)">
        <path
           id="path284"
           d="M 1.159479,5.6740946 V 25.408248 c 0,1.130971 0.9104932,2.041464 2.0414645,2.041464 H 29.059494 c 1.130972,0 2.041465,-0.910493 2.041465,-2.041464 V 5.6740946 Z"
           inkscape:connector-curvature="0"
           style="fill:#f0fff0;stroke-width:0.06804882"
           inkscape:export-xdpi="87"
           inkscape:export-ydpi="87" />
        <path
           id="path286"
           d="m 3.2009435,1.5911655 c -1.1309713,0 -2.0414645,0.9104931 -2.0414645,2.0414645 v 2.0414646 h 29.94148 V 3.63263 c 0,-1.1309714 -0.910493,-2.0414645 -2.041465,-2.0414645 z"
           inkscape:connector-curvature="0"
           style="fill:#ff5e79;stroke-width:0.06804882;fill-opacity:1"
           inkscape:export-xdpi="87"
           inkscape:export-ydpi="87" />
        <path
           id="path288"
           d="m 3.2009435,1.5911655 c -1.1309713,0 -2.0414645,0.9104931 -2.0414645,2.0414645 v 1.3609764 c 0,-1.1309714 0.9104932,-2.0414646 2.0414645,-2.0414646 H 29.059494 c 1.130972,0 2.041465,0.9104932 2.041465,2.0414646 V 3.63263 c 0,-1.1309714 -0.910493,-2.0414645 -2.041465,-2.0414645 z"
           inkscape:connector-curvature="0"
           style="opacity:0.1;fill:#ffffff;stroke-width:0.06804882"
           inkscape:export-xdpi="87"
           inkscape:export-ydpi="87" />
        <text
           xml:space="preserve"
           style="font-style:normal;font-weight:normal;font-size:2.72533202px;line-height:125%;font-family:'Pinkie Pie';letter-spacing:0px;word-spacing:0px;fill:#000000;fill-opacity:1;stroke:none;stroke-width:0.0681333px;stroke-linecap:butt;stroke-linejoin:miter;stroke-opacity:1;-inkscape-font-specification:'Pinkie Pie';font-stretch:normal;font-variant:normal;"
           x="7.3038955"
           y="14.531549"
           id="text316"
           transform="scale(1.0390725,0.96239677)"
           inkscape:export-xdpi="87"
           inkscape:export-ydpi="87"><tspan
             sodipodi:role="line"
             id="tspan314"
             x="7.3038955"
             y="16.942829"
             style="stroke-width:0.0681333px;-inkscape-font-specification:'Pinkie Pie';font-family:'Pinkie Pie';font-weight:normal;font-style:normal;font-stretch:normal;font-variant:normal;" /></text>
        <text
           xml:space="preserve"
           style="font-style:normal;font-weight:normal;font-size:19.16739464px;line-height:125%;font-family:Sans;letter-spacing:0px;word-spacing:0px;fill:#ff5368;fill-opacity:1;stroke:#000000;stroke-width:0.09296172;stroke-linecap:butt;stroke-linejoin:miter;stroke-opacity:1;stroke-miterlimit:4;stroke-dasharray:none;stroke-dashoffset:1.1871289;paint-order:normal;"
           x="4.7067213"
           y="23.58972"
           id="text320"
           transform="scale(1.0504093,0.95200987)"
           inkscape:export-xdpi="87"
           inkscape:export-ydpi="87"><tspan
             sodipodi:role="line"
             id="tspan318"
             x="4.7067213"
             y="23.58972"
             style="font-style:normal;font-variant:normal;font-weight:normal;font-stretch:normal;font-family:'Pinkie Pie';-inkscape-font-specification:'Pinkie Pie';fill:#ff5368;stroke-width:0.09296172;fill-opacity:1;stroke:#000000;stroke-opacity:1;stroke-miterlimit:4;stroke-dasharray:none;stroke-dashoffset:1.1871289;paint-order:normal;">CD</tspan></text>
      </g>
    </g>
  </g>
</svg>
